…
``` r
tibble_lltsventa%>%timetk::plot_time_series(Fecha, ll_tsventa, 
                   .interactive = TRUE,
                   .plotly_slider = TRUE)
```


``` r
# Ajuste Loess
tibble_lltsventa%>%
  mutate( lltsventa_ajus = smooth_vec(ll_tsventa,span = 0.60, degree = 2) )
```

    ## # A tibble: 7,352 × 3
    ##    Fecha      ll_tsventa lltsventa_ajus
    ##    <date>          <dbl>          <dbl>
    ##  1 2004-01-01       10.5           10.3
    ##  2 2004-01-02       10.5           10.3
    ##  3 2004-01-03       10.5           10.3
    ##  4 2004-01-04       10.5           10.3
    ##  5 2004-01-05       10.5           10.3
    ##  6 2004-01-06       10.6           10.3
    ##  7 2004-01-07       10.5           10.3
    ##  8 2004-01-08       10.5           10.3
    ##  9 2004-01-09       10.5           10.3
    ## 10 2004-01-10       10.5           10.3
    ## # ℹ 7,342 more rows
…
